tb_approx_multiplier_8x8.vcd
$date
	Sat Apr 18 23:21:14 2026
$end
$version
	Icarus Verilog
$end
$timescale
	1ps
$end
$scope module tb_approx_multiplier_8x8 $end
$var wire 1 ! valid_out_tb $end
$var wire 16 " P_tb [15:0] $end
$var parameter 32 # CLK_PERIOD $end
$var reg 8 $ A_tb [7:0] $end
$var reg 8 % B_tb [7:0] $end
$var reg 1 & clk $end
$var reg 16 ' exact_product [15:0] $end
$var reg 32 ( rand_val [31:0] $end
$var reg 1 ) rst $end
$var reg 8 * saved_A [7:0] $end
$var reg 8 + saved_B [7:0] $end
$var reg 1 , valid_in $end
$var integer 32 - abs_delta [31:0] $end
$var integer 32 . delta [31:0] $end
$var integer 32 / dir_fail [31:0] $end
$var integer 32 0 dir_pass [31:0] $end
$var integer 32 1 hw_ok_int [31:0] $end
$var integer 32 2 i [31:0] $end
$var integer 32 3 pipe_ok_int [31:0] $end
$var integer 32 4 rnd_fail [31:0] $end
$var integer 32 5 rnd_pass [31:0] $end
$scope module DUT $end
$var wire 8 6 A [7:0] $end
$var wire 8 7 B [7:0] $end
$var wire 1 8 carry_CAC_0 $end
$var wire 1 9 carry_CAC_0_unused $end
$var wire 1 : carry_CAC_1_unused $end
$var wire 1 ; carry_CAC_2 $end
$var wire 1 < carry_CAC_2_from_module $end
$var wire 1 = carry_MFA_0 $end
$var wire 1 > carry_MFA_1 $end
$var wire 1 ? carry_MFA_2 $end
$var wire 1 @ carry_MHA_0 $end
$var wire 1 A carry_MHA_0_from_module $end
$var wire 1 & clk $end
$var wire 1 B p_0_4 $end
$var wire 1 C p_0_5 $end
$var wire 1 D p_1_3 $end
$var wire 1 E p_1_4 $end
$var wire 1 F p_1_5 $end
$var wire 1 G p_1_6 $end
$var wire 1 H p_1_7 $end
$var wire 1 I p_2_2 $end
$var wire 1 J p_2_4 $end
$var wire 1 K p_2_5 $end
$var wire 1 L p_2_6 $end
$var wire 1 M p_2_7 $end
$var wire 1 N p_3_1 $end
$var wire 1 O p_3_2 $end
$var wire 1 P p_3_4 $end
$var wire 1 Q p_3_5 $end
$var wire 1 R p_3_6 $end
$var wire 1 S p_3_7 $end
$var wire 1 T p_4_0 $end
$var wire 1 U p_4_1 $end
$var wire 1 V p_4_2 $end
$var wire 1 W p_4_5 $end
$var wire 1 X p_4_6 $end
$var wire 1 Y p_4_7 $end
$var wire 1 Z p_5_0 $end
$var wire 1 [ p_5_1 $end
$var wire 1 \ p_5_2 $end
$var wire 1 ] p_5_3 $end
$var wire 1 ^ p_5_4 $end
$var wire 1 _ p_5_5 $end
$var wire 1 ` p_5_6 $end
$var wire 1 a p_5_7 $end
$var wire 1 b p_6_0 $end
$var wire 1 c p_6_1 $end
$var wire 1 d p_6_2 $end
$var wire 1 e p_6_3 $end
$var wire 1 f p_6_4 $end
$var wire 1 g p_6_5 $end
$var wire 1 h p_6_6 $end
$var wire 1 i p_6_7 $end
$var wire 1 j p_7_0 $end
$var wire 1 k p_7_1 $end
$var wire 1 l p_7_2 $end
$var wire 1 m p_7_3 $end
$var wire 1 n p_7_4 $end
$var wire 1 o p_7_5 $end
$var wire 1 p p_7_6 $end
$var wire 1 q p_7_7 $end
$var wire 1 ) rst $end
$var wire 1 r sum_ACMLC_0 $end
$var wire 1 s sum_ACMLC_1 $end
$var wire 1 t sum_ACMLC_2 $end
$var wire 1 u sum_ACMLC_3 $end
$var wire 1 v sum_ACMLC_4 $end
$var wire 1 w sum_MACMLC_0 $end
$var wire 1 x sum_MACMLC_1 $end
$var wire 1 y sum_MHA_0 $end
$var wire 1 z unused_carry_ACMLC_0_col7 $end
$var wire 1 { unused_carry_ACMLC_3_col8 $end
$var wire 1 | unused_carry_HA_0_in_col5 $end
$var wire 1 } unused_carry_HA_4 $end
$var wire 1 ~ unused_sum_MACMLC_2 $end
$var wire 1 !" unused_sum_MACMLC_3 $end
$var wire 1 , valid_in $end
$var wire 1 "" sum_MFA_3 $end
$var wire 1 #" sum_MFA_2 $end
$var wire 1 $" sum_MFA_1 $end
$var wire 1 %" sum_MFA_0 $end
$var wire 1 &" sum_HA_4 $end
$var wire 1 '" sum_HA_3 $end
$var wire 1 (" sum_HA_2 $end
$var wire 1 )" sum_HA_1 $end
$var wire 1 *" sum_HA_0 $end
$var wire 1 +" sum_FA_9 $end
$var wire 1 ," sum_FA_8 $end
$var wire 1 -" sum_FA_7 $end
$var wire 1 ." sum_FA_6 $end
$var wire 1 /" sum_FA_5 $end
$var wire 1 0" sum_FA_4 $end
$var wire 1 1" sum_FA_3 $end
$var wire 1 2" sum_FA_2 $end
$var wire 1 3" sum_FA_10 $end
$var wire 1 4" sum_FA_1 $end
$var wire 1 5" sum_FA_0 $end
$var wire 1 6" sum_EX_COMP_0 $end
$var wire 1 7" sum_CAC_2 $end
$var wire 1 8" sum_CAC_1 $end
$var wire 1 9" sum_CAC_0 $end
$var wire 1 :" cout_EX_COMP_0 $end
$var wire 1 ;" carry_MFA_3 $end
$var wire 1 <" carry_MFA_2_from_module $end
$var wire 1 =" carry_MFA_1_from_module $end
$var wire 1 >" carry_MFA_0_from_module $end
$var wire 1 ?" carry_MACMLC_3 $end
$var wire 1 @" carry_MACMLC_2 $end
$var wire 1 A" carry_MACMLC_1 $end
$var wire 1 B" carry_MACMLC_0 $end
$var wire 1 C" carry_HA_4 $end
$var wire 1 D" carry_HA_3 $end
$var wire 1 E" carry_HA_2 $end
$var wire 1 F" carry_HA_1 $end
$var wire 1 G" carry_HA_0 $end
$var wire 1 H" carry_FA_9 $end
$var wire 1 I" carry_FA_8 $end
$var wire 1 J" carry_FA_7 $end
$var wire 1 K" carry_FA_6 $end
$var wire 1 L" carry_FA_5 $end
$var wire 1 M" carry_FA_4 $end
$var wire 1 N" carry_FA_3 $end
$var wire 1 O" carry_FA_2 $end
$var wire 1 P" carry_FA_10 $end
$var wire 1 Q" carry_FA_1 $end
$var wire 1 R" carry_FA_0 $end
$var wire 1 S" carry_EX_COMP_0 $end
$var wire 1 T" carry_ACMLC_4 $end
$var wire 1 U" carry_ACMLC_3 $end
$var wire 1 V" carry_ACMLC_2 $end
$var wire 1 W" carry_ACMLC_1 $end
$var wire 1 X" carry_ACMLC_0 $end
$var reg 16 Y" P [15:0] $end
$var reg 1 Z" carry_ACMLC_0_r1 $end
$var reg 1 [" carry_ACMLC_1_r1 $end
$var reg 1 \" carry_ACMLC_2_r1 $end
$var reg 1 ]" carry_ACMLC_3_r1 $end
$var reg 1 ^" carry_ACMLC_4_r1 $end
$var reg 1 _" carry_EX_COMP_0_r1 $end
$var reg 1 `" carry_FA_0_r1 $end
$var reg 1 a" carry_FA_1_r1 $end
$var reg 1 b" carry_FA_2_r1 $end
$var reg 1 c" carry_FA_3_r2 $end
$var reg 1 d" carry_FA_4_r2 $end
$var reg 1 e" carry_FA_5_r2 $end
$var reg 1 f" carry_HA_0_r1 $end
$var reg 1 g" carry_HA_1_r1 $end
$var reg 1 h" carry_HA_2_r1 $end
$var reg 1 i" carry_HA_3_r2 $end
$var reg 1 j" carry_HA_4_r2 $end
$var reg 1 k" carry_MACMLC_0_r2 $end
$var reg 1 l" carry_MACMLC_1_r2 $end
$var reg 1 m" carry_MACMLC_2_r2 $end
$var reg 1 n" carry_MACMLC_3_r2 $end
$var reg 1 o" cout_EX_COMP_0_r1 $end
$var reg 1 p" p_0_4_r1 $end
$var reg 1 q" p_0_5_r1 $end
$var reg 1 r" p_1_3_r1 $end
$var reg 1 s" p_1_4_r1 $end
$var reg 1 t" p_1_5_r1 $end
$var reg 1 u" p_2_2_r1 $end
$var reg 1 v" p_2_4_r1 $end
$var reg 1 w" p_3_7_r1 $end
$var reg 1 x" p_4_7_r1 $end
$var reg 1 y" p_7_7_r1 $end
$var reg 1 z" sum_CAC_0_r1 $end
$var reg 1 {" sum_CAC_1_r2 $end
$var reg 1 |" sum_CAC_2_r2 $end
$var reg 1 }" sum_EX_COMP_0_r1 $end
$var reg 1 ~" sum_FA_0_r1 $end
$var reg 1 !# sum_FA_1_r1 $end
$var reg 1 "# sum_FA_2_r1 $end
$var reg 1 ## sum_FA_3_r2 $end
$var reg 1 $# sum_FA_4_r2 $end
$var reg 1 %# sum_FA_5_r2 $end
$var reg 1 &# sum_HA_0_r1 $end
$var reg 1 '# sum_HA_1_r1 $end
$var reg 1 (# sum_HA_2_r1 $end
$var reg 1 )# sum_HA_3_r2 $end
$var reg 1 *# sum_HA_4_r2 $end
$var reg 1 ! valid_out $end
$var reg 1 +# valid_r1 $end
$var reg 1 ,# valid_r2 $end
$scope module ACMLC_0 $end
$var wire 1 X" Carry $end
$var wire 1 r Sum $end
$var wire 1 Z X1 $end
$var wire 1 U X2 $end
$var wire 1 O X3 $end
$var wire 1 -# X4 $end
$var wire 1 .# unused_X4 $end
$upscope $end
$scope module ACMLC_1 $end
$var wire 1 W" Carry $end
$var wire 1 s Sum $end
$var wire 1 b X1 $end
$var wire 1 [ X2 $end
$var wire 1 V X3 $end
$var wire 1 /# X4 $end
$var wire 1 0# unused_X4 $end
$upscope $end
$scope module ACMLC_2 $end
$var wire 1 V" Carry $end
$var wire 1 t Sum $end
$var wire 1 j X1 $end
$var wire 1 c X2 $end
$var wire 1 \ X3 $end
$var wire 1 1# X4 $end
$var wire 1 2# unused_X4 $end
$upscope $end
$scope module ACMLC_3 $end
$var wire 1 U" Carry $end
$var wire 1 u Sum $end
$var wire 1 P X1 $end
$var wire 1 K X2 $end
$var wire 1 G X3 $end
$var wire 1 3# X4 $end
$var wire 1 4# unused_X4 $end
$upscope $end
$scope module ACMLC_4 $end
$var wire 1 T" Carry $end
$var wire 1 v Sum $end
$var wire 1 k X1 $end
$var wire 1 d X2 $end
$var wire 1 ] X3 $end
$var wire 1 5# X4 $end
$var wire 1 6# unused_X4 $end
$upscope $end
$scope module CAC_0 $end
$var wire 1 9 Carry $end
$var wire 1 9" Sum $end
$var wire 1 l X1 $end
$var wire 1 e X2 $end
$var wire 1 ^ X3 $end
$var wire 1 W X4 $end
$upscope $end
$scope module CAC_1 $end
$var wire 1 : Carry $end
$var wire 1 8" Sum $end
$var wire 1 &# X1 $end
$var wire 1 u" X2 $end
$var wire 1 r" X3 $end
$var wire 1 p" X4 $end
$upscope $end
$scope module CAC_2 $end
$var wire 1 < Carry $end
$var wire 1 7" Sum $end
$var wire 1 z" X1 $end
$var wire 1 '# X2 $end
$var wire 1 ^" X3 $end
$var wire 1 `" X4 $end
$upscope $end
$scope module EX_COMP_0 $end
$var wire 1 S" Carry $end
$var wire 1 8 Cin $end
$var wire 1 :" Cout $end
$var wire 1 6" Sum $end
$var wire 1 m X1 $end
$var wire 1 f X2 $end
$var wire 1 _ X3 $end
$var wire 1 X X4 $end
$var wire 1 7# xor4 $end
$upscope $end
$scope module FA_0 $end
$var wire 1 R" Carry $end
$var wire 1 H Cin $end
$var wire 1 5" Sum $end
$var wire 1 Q X1 $end
$var wire 1 L X2 $end
$upscope $end
$scope module FA_1 $end
$var wire 1 Q" Carry $end
$var wire 1 ` Cin $end
$var wire 1 4" Sum $end
$var wire 1 n X1 $end
$var wire 1 g X2 $end
$upscope $end
$scope module FA_10 $end
$var wire 1 P" Carry $end
$var wire 1 3" Sum $end
$var wire 1 *# X1 $end
$var wire 1 i" X2 $end
$var wire 1 H" Cin $end
$upscope $end
$scope module FA_2 $end
$var wire 1 O" Carry $end
$var wire 1 a Cin $end
$var wire 1 2" Sum $end
$var wire 1 o X1 $end
$var wire 1 h X2 $end
$upscope $end
$scope module FA_3 $end
$var wire 1 N" Carry $end
$var wire 1 g" Cin $end
$var wire 1 1" Sum $end
$var wire 1 }" X1 $end
$var wire 1 w" X2 $end
$upscope $end
$scope module FA_4 $end
$var wire 1 M" Carry $end
$var wire 1 _" Cin $end
$var wire 1 0" Sum $end
$var wire 1 !# X1 $end
$var wire 1 x" X2 $end
$upscope $end
$scope module FA_5 $end
$var wire 1 L" Carry $end
$var wire 1 o" Cin $end
$var wire 1 /" Sum $end
$var wire 1 "# X1 $end
$var wire 1 a" X2 $end
$upscope $end
$scope module FA_6 $end
$var wire 1 K" Carry $end
$var wire 1 ? Cin $end
$var wire 1 ." Sum $end
$var wire 1 |" X1 $end
$var wire 1 n" X2 $end
$upscope $end
$scope module FA_7 $end
$var wire 1 J" Carry $end
$var wire 1 -" Sum $end
$var wire 1 $# X1 $end
$var wire 1 c" X2 $end
$var wire 1 ;" Cin $end
$upscope $end
$scope module FA_8 $end
$var wire 1 I" Carry $end
$var wire 1 J" Cin $end
$var wire 1 ," Sum $end
$var wire 1 %# X1 $end
$var wire 1 d" X2 $end
$upscope $end
$scope module FA_9 $end
$var wire 1 H" Carry $end
$var wire 1 I" Cin $end
$var wire 1 +" Sum $end
$var wire 1 )# X1 $end
$var wire 1 e" X2 $end
$upscope $end
$scope module HA_0 $end
$var wire 1 G" Carry $end
$var wire 1 *" Sum $end
$var wire 1 T X1 $end
$var wire 1 N X2 $end
$upscope $end
$scope module HA_1 $end
$var wire 1 F" Carry $end
$var wire 1 )" Sum $end
$var wire 1 R X1 $end
$var wire 1 M X2 $end
$upscope $end
$scope module HA_2 $end
$var wire 1 E" Carry $end
$var wire 1 (" Sum $end
$var wire 1 p X1 $end
$var wire 1 i X2 $end
$upscope $end
$scope module HA_3 $end
$var wire 1 D" Carry $end
$var wire 1 '" Sum $end
$var wire 1 (# X1 $end
$var wire 1 b" X2 $end
$upscope $end
$scope module HA_4 $end
$var wire 1 C" Carry $end
$var wire 1 &" Sum $end
$var wire 1 y" X1 $end
$var wire 1 h" X2 $end
$upscope $end
$scope module MACMLC_0 $end
$var wire 1 B" Carry $end
$var wire 1 w Sum $end
$var wire 1 s" X2 $end
$var wire 1 q" X3 $end
$var wire 1 8# X4 $end
$var wire 1 9# unused_X4 $end
$upscope $end
$scope module MACMLC_1 $end
$var wire 1 A" Carry $end
$var wire 1 x Sum $end
$var wire 1 v" X2 $end
$var wire 1 t" X3 $end
$var wire 1 :# X4 $end
$var wire 1 ;# unused_X4 $end
$upscope $end
$scope module MACMLC_2 $end
$var wire 1 @" Carry $end
$var wire 1 ~ Sum $end
$var wire 1 <# X2 $end
$var wire 1 [" X3 $end
$var wire 1 =# X4 $end
$var wire 1 ># unused_X4 $end
$upscope $end
$scope module MACMLC_3 $end
$var wire 1 ?" Carry $end
$var wire 1 !" Sum $end
$var wire 1 ~" X2 $end
$var wire 1 \" X3 $end
$var wire 1 ?# X4 $end
$var wire 1 @# unused_X4 $end
$upscope $end
$scope module MFA_0 $end
$var wire 1 >" Carry $end
$var wire 1 @ Cin $end
$var wire 1 %" Sum $end
$var wire 1 k" X2 $end
$upscope $end
$scope module MFA_1 $end
$var wire 1 =" Carry $end
$var wire 1 = Cin $end
$var wire 1 $" Sum $end
$var wire 1 l" X2 $end
$upscope $end
$scope module MFA_2 $end
$var wire 1 <" Carry $end
$var wire 1 > Cin $end
$var wire 1 #" Sum $end
$var wire 1 m" X2 $end
$upscope $end
$scope module MFA_3 $end
$var wire 1 ;" Carry $end
$var wire 1 K" Cin $end
$var wire 1 "" Sum $end
$var wire 1 ## X2 $end
$upscope $end
$scope module MHA_0 $end
$var wire 1 A Carry $end
$var wire 1 y Sum $end
$upscope $end
$upscope $end
$scope begin pipe_test_block $end
$var reg 16 A# prev_P [15:0] $end
$var integer 32 B# cycle_count [31:0] $end
$var integer 32 C# first_valid_cycle [31:0] $end
$var integer 32 D# outputs_differ [31:0] $end
$var integer 32 E# valid_count [31:0] $end
$upscope $end
$scope task apply_and_wait $end
$var reg 8 F# a_val [7:0] $end
$var reg 8 G# b_val [7:0] $end
$upscope $end
$upscope $end
$enddefinitions $end
$comment Show the parameter values. $end
$dumpall
b1010 #
$end
#0
$dumpvars
bx G#
bx F#
bx E#
bx D#
bx C#
bx B#
bx A#
0@#
0?#
0>#
0=#
1<#
0;#
0:#
09#
08#
07#
06#
05#
04#
03#
02#
01#
00#
0/#
0.#
0-#
x,#
x+#
x*#
x)#
x(#
x'#
x&#
x%#
x$#
x##
x"#
x!#
x~"
x}"
x|"
x{"
xz"
xy"
xx"
xw"
xv"
xu"
xt"
xs"
xr"
xq"
xp"
xo"
xn"
xm"
xl"
xk"
xj"
xi"
xh"
xg"
xf"
xe"
xd"
xc"
xb"
xa"
x`"
x_"
x^"
x]"
x\"
x["
xZ"
bx Y"
1X"
0W"
1V"
1U"
0T"
0S"
0R"
1Q"
xP"
0O"
xN"
xM"
xL"
xK"
xJ"
xI"
xH"
0G"
0F"
0E"
xD"
xC"
xB"
xA"
1@"
x?"
1>"
1="
1<"
x;"
0:"
09"
x8"
x7"
16"
05"
04"
x3"
02"
x1"
x0"
x/"
x."
x-"
x,"
x+"
0*"
1)"
1("
x'"
x&"
x%"
x$"
x#"
x""
1!"
1~
x}
x|
x{
xz
0y
1x
1w
1v
1u
1t
1s
1r
0q
1p
0o
1n
0m
1l
0k
1j
0i
0h
0g
0f
0e
0d
0c
0b
0a
1`
0_
1^
0]
1\
0[
1Z
0Y
0X
0W
0V
0U
0T
0S
1R
0Q
1P
1O
0N
0M
0L
0K
0J
0I
0H
1G
0F
1E
0D
0C
0B
1A
1@
1?
1>
1=
1<
1;
1:
19
18
b1010101 7
b10101010 6
b0 5
b0 4
b1 3
bx 2
b1 1
b0 0
b0 /
bx .
bx -
1,
bx +
bx *
1)
bx (
bx '
0&
b1010101 %
b10101010 $
bx "
x!
$end
#5000
1""
0-"
07"
0;"
08"
0/"
00"
0L"
0M"
01"
0N"
03"
0P"
0+"
0H"
0,"
0I"
0J"
1."
0K"
0#"
0$"
0%"
0A"
0B"
0&"
0}
0C"
0'"
0D"
0?"
0+#
0y"
0x"
0w"
0t"
0v"
0q"
0s"
0p"
0r"
0u"
0h"
0(#
0b"
0"#
0a"
0!#
0o"
0_"
0}"
0g"
0'#
0z"
0`"
0~"
0^"
0{
0]"
0\"
0["
0z
0Z"
0|
0f"
0&#
0,#
0j"
0*#
0i"
0)#
0e"
0%#
0d"
0$#
0c"
0##
0|"
0n"
0m"
0l"
0k"
0{"
0!
b0 "
b0 Y"
1&
#10000
0&
#15000
1&
#20000
0&
#25000
1&
#30000
0X"
0V"
0U"
0Q"
0)"
04"
0("
0Z
0O
0j
0\
0P
0G
0l
0^
0R
0n
0`
0p
0E
b0 %
b0 7
b0 $
b0 6
0,
0)
0&
#35000
1#"
11"
b11000000110 "
b11000000110 Y"
1m"
1}"
1&
#40000
0&
#45000
0""
1-"
1;"
1##
b11100000110 "
b11100000110 Y"
1&
#50000
0&
#55000
b101100000110 "
b101100000110 Y"
1&
#60000
0&
#65000
1&
#70000
0&
#75000
b0 G#
b0 F#
b0 +
b0 *
b0 2
1&
#80000
1,
0&
#85000
1+#
1&
#90000
0,
0&
#95000
1,#
0+#
1&
#100000
0&
#105000
0,#
1!
1&
#110000
0&
#111000
b11111111 G#
b11111111 F#
b11111111 +
b11111111 *
b1 2
b1 /
b101100000110 -
b101100000110 .
#115000
0!
1&
#120000
1R"
19"
1:"
16"
1S"
1Q"
1O"
1G"
1X"
1W"
1V"
1U"
1T"
15"
1F"
07#
14"
12"
1E"
1T
1N
1Z
1U
1O
1b
1[
1V
1j
1c
1\
1P
1K
1G
1k
1d
1]
1Q
1L
1H
1l
1e
1^
1W
1R
1M
1m
1f
1_
1X
1n
1g
1`
1o
1h
1a
1p
1i
1q
1I
1D
1B
1E
1C
1J
1F
1S
1Y
1,
b11111111 %
b11111111 7
b11111111 $
b11111111 6
0&
#125000
18"
1L"
1M"
1N"
17"
1A"
1B"
1}
1C"
1'"
1/"
10"
11"
1?"
1+#
1y"
1x"
1w"
1t"
1v"
1q"
1s"
1p"
1r"
1u"
1h"
1b"
1"#
1a"
1!#
1o"
1_"
1g"
1z"
1`"
1~"
1^"
1{
1]"
1\"
1["
1z
1Z"
1|
1f"
1&
#130000
09"
0R"
0:"
16"
0S"
0Q"
0O"
0G"
0X"
0W"
0V"
0U"
0T"
05"
0F"
07#
04"
02"
0E"
0T
0N
0Z
0U
0O
0b
0[
0V
0j
0c
0\
0P
0K
0G
0k
0d
0]
0Q
0L
0H
0l
0e
0^
0W
0R
0M
0m
0f
0_
0X
0n
0g
0`
0o
0h
0a
0p
0i
0q
0I
0D
0B
0E
0C
0J
0F
0S
0Y
b0 %
b0 7
b0 $
b0 6
0,
0&
#135000
1""
13"
1+"
1,"
1H"
1I"
1J"
1K"
1$"
1%"
08"
0L"
0M"
0N"
07"
0A"
0B"
0}
0C"
0'"
0/"
00"
11"
0?"
1,#
1j"
1)#
1e"
1%#
1d"
1$#
1c"
1|"
1n"
1l"
1k"
1{"
0+#
0y"
0x"
0w"
0t"
0v"
0q"
0s"
0p"
0r"
0u"
0h"
0b"
0"#
0a"
0!#
0o"
0_"
0g"
0z"
0`"
0~"
0^"
0{
0]"
0\"
0["
0z
0Z"
0|
0f"
1&
#140000
0&
#145000
0""
03"
0+"
0,"
0H"
0I"
0J"
0K"
0$"
0%"
0,#
0j"
0)#
0e"
0%#
0d"
0$#
0c"
0|"
0n"
0l"
0k"
0{"
1!
b111111111010110 "
b111111111010110 Y"
1&
#150000
0&
#151000
b1 G#
b1 F#
b1 +
b1 *
b10 2
b10 /
b111111000101011 -
b11111111111111111000000111010101 .
#155000
0!
b101100000110 "
b101100000110 Y"
1&
#160000
1,
b1 %
b1 7
b1 $
b1 6
0&
#165000
1+#
1&
#170000
b0 %
b0 7
b0 $
b0 6
0,
0&
#175000
1,#
0+#
1&
#180000
0&
#185000
0,#
1!
1&
#190000
0&
#191000
b10000000 G#
b10000000 F#
b10000000 +
b10000000 *
b11 2
b11 /
b101100000101 -
b101100000101 .
#195000
0!
1&
#200000
1q
1,
b10000000 %
b10000000 7
b10000000 $
b10000000 6
0&
#205000
1&"
1+#
1y"
1&
#210000
0q
b0 %
b0 7
b0 $
b0 6
0,
0&
#215000
13"
0&"
1,#
1*#
0+#
0y"
1&
#220000
0&
#225000
03"
0,#
0*#
1!
b100101100000110 "
b100101100000110 Y"
1&
#230000
0&
#231000
b0 G#
b11111111 F#
b0 +
b11111111 *
b100 2
b100 /
b101100000110 -
b101100000110 .
#235000
0!
b101100000110 "
b101100000110 Y"
1&
#240000
1,
b11111111 $
b11111111 6
0&
#245000
1+#
1&
#250000
b0 $
b0 6
0,
0&
#255000
1,#
0+#
1&
#260000
0&
#265000
0,#
1!
1&
#270000
0&
#271000
b11111111 G#
b0 F#
b11111111 +
b0 *
b101 2
b101 /
#275000
0!
1&
#280000
1,
b11111111 %
b11111111 7
0&
#285000
1+#
1&
#290000
b0 %
b0 7
0,
0&
#295000
1,#
0+#
1&
#300000
0&
#305000
0,#
1!
1&
#310000
0&
#311000
b1 G#
b10000000 F#
b1 +
b10000000 *
b110 2
b110 /
#315000
0!
1&
#320000
1j
1,
b1 %
b1 7
b10000000 $
b10000000 6
0&
#325000
1+#
1&
#330000
0j
b0 %
b0 7
b0 $
b0 6
0,
0&
#335000
1,#
0+#
1&
#340000
0&
#345000
0,#
1!
1&
#350000
0&
#351000
b1010101 G#
b10101010 F#
b1010101 +
b10101010 *
b111 2
b111 /
b101010000110 -
b101010000110 .
#355000
0!
1&
#360000
1Q"
1X"
1V"
1U"
1)"
04"
1("
1Z
1O
1j
1\
1P
1G
1l
1^
1R
1n
1`
1p
1E
1,
b1010101 %
b1010101 7
b10101010 $
b10101010 6
0&
#365000
1/"
1B"
1'"
1?"
1+#
1s"
1(#
1a"
1'#
1{
1]"
1\"
1z
1Z"
1&
#370000
0X"
0V"
0U"
0Q"
0)"
04"
0("
0Z
0O
0j
0\
0P
0G
0l
0^
0R
0n
0`
0p
0E
b0 %
b0 7
b0 $
b0 6
0,
0&
#375000
1""
1K"
1+"
1,"
0."
1%"
0/"
0B"
0'"
0?"
1,#
1)#
1%#
1n"
1k"
0+#
0s"
0(#
0a"
0'#
0{
0]"
0\"
0z
0Z"
1&
#380000
0&
#385000
0""
0K"
0+"
0,"
1."
0%"
0,#
0)#
0%#
0n"
0k"
1!
b11110101000110 "
b11110101000110 Y"
1&
#390000
0&
#391000
b1111 G#
b1111 F#
b1111 +
b1111 *
b1000 2
b1000 /
b10011010100 -
b10011010100 .
#395000
0!
b101100000110 "
b101100000110 Y"
1&
#400000
1*"
1N
1O
1I
1D
1,
b1111 %
b1111 7
b1111 $
b1111 6
0&
#405000
18"
1+#
1r"
1u"
1&#
1&
#410000
0*"
0N
0O
0I
0D
b0 %
b0 7
b0 $
b0 6
0,
0&
#415000
08"
1,#
1{"
0+#
0r"
0u"
0&#
1&
#420000
0&
#425000
0,#
0{"
1!
b101100010110 "
b101100010110 Y"
1&
#430000
0&
#431000
b11110000 G#
b11110000 F#
b11110000 +
b11110000 *
b1001 2
b1001 /
b101000110101 -
b101000110101 .
#435000
0!
b101100000110 "
b101100000110 Y"
1&
#440000
1:"
19"
06"
1S"
1Q"
1O"
17#
14"
12"
1E"
1^
1W
1f
1_
1X
1n
1g
1`
1o
1h
1a
1p
1i
1q
1Y
1,
b11110000 %
b11110000 7
b11110000 $
b11110000 6
0&
#445000
1L"
1M"
01"
1}
1C"
1'"
1/"
10"
1+#
1y"
1x"
1h"
1b"
1"#
1a"
1!#
1o"
1_"
0}"
1z"
1&
#450000
0S"
09"
0:"
16"
0Q"
0O"
07#
04"
02"
0E"
0^
0W
0f
0_
0X
0n
0g
0`
0o
0h
0a
0p
0i
0q
0Y
b0 %
b0 7
b0 $
b0 6
0,
0&
#455000
13"
1+"
1H"
1I"
1""
0L"
0M"
11"
0;"
0}
0C"
0'"
0/"
00"
1,#
1j"
1)#
1e"
1%#
1d"
1$#
0##
0+#
0y"
0x"
0h"
0b"
0"#
0a"
0!#
0o"
0_"
1}"
0z"
1&
#460000
0&
#465000
03"
0+"
0H"
0I"
0""
1;"
0,#
0j"
0)#
0e"
0%#
0d"
0$#
1##
1!
b110111100000110 "
b110111100000110 Y"
1&
#470000
0&
#471000
b110101 G#
b100100 F#
b110101 +
b100100 *
b10010000101010011010100100100 (
b0 2
b1010 /
b111000111111010 -
b11111111111111111000111000000110 .
#475000
0!
b101100000110 "
b101100000110 Y"
1&
#480000
1S"
06"
17#
1U"
1Z
1\
1K
1^
1_
1I
1J
1,
b110101 %
b110101 7
b100100 $
b100100 6
0&
#485000
01"
1A"
10"
1+#
1v"
1u"
1_"
0}"
1{
1]"
1&
#490000
0S"
16"
07#
0U"
0Z
0\
0K
0^
0_
0I
0J
b0 %
b0 7
b0 $
b0 6
0,
0&
#495000
1""
1$"
11"
0;"
0A"
00"
1,#
1$#
0##
1l"
0+#
0v"
0u"
0_"
1}"
0{
0]"
1&
#500000
0&
#505000
0""
0$"
1;"
0,#
0$#
1##
0l"
1!
b111110000110 "
b111110000110 Y"
1&
#510000
0&
#511000
b1011110 G#
b10000001 F#
b1011110 +
b10000001 *
b11000000100010010101111010000001 (
b1 2
b1 5
b100000010010 -
b100000010010 .
b11101110100 '
#515000
0!
b101100000110 "
b101100000110 Y"
1&
#520000
1S"
06"
17#
14"
1("
1k
1l
1m
1n
1p
1B
1,
b1011110 %
b1011110 7
b10000001 $
b10000001 6
0&
#525000
1M"
01"
1'"
00"
1+#
1p"
1(#
1!#
1_"
0}"
1&
#530000
0S"
16"
07#
04"
0("
0k
0l
0m
0n
0p
0B
b0 %
b0 7
b0 $
b0 6
0,
0&
#535000
1+"
1,"
1""
0-"
0M"
11"
0;"
0'"
00"
1,#
1)#
1d"
0##
0+#
0p"
0(#
0!#
0_"
1}"
1&
#540000
0&
#545000
0+"
0,"
0""
1-"
1;"
0,#
0)#
0d"
1##
1!
b11011100000110 "
b11011100000110 Y"
1&
#550000
0&
#551000
b11010110 G#
b1001 F#
b11010110 +
b1001 *
b10000100100001001101011000001001 (
b10 2
b10 5
b11110101000 -
b11110101000 .
b10111101011110 '
#555000
0!
b101100000110 "
b101100000110 Y"
1&
#560000
1*"
1)"
1N
1O
1P
1R
1B
1S
1,
b11010110 %
b11010110 7
b1001 $
b1001 6
0&
#565000
01"
1N"
1+#
1w"
1p"
1'#
1&#
1&
#570000
0*"
0)"
0N
0O
0P
0R
0B
0S
b0 %
b0 7
b0 $
b0 6
0,
0&
#575000
1""
11"
0N"
0;"
1,#
1c"
0##
0+#
0w"
0p"
0'#
0&#
1&
#580000
0&
#585000
0""
1;"
0,#
0c"
1##
1!
b111100000110 "
b111100000110 Y"
1&
#590000
0&
#591000
b1010110 G#
b1100011 F#
b1010110 +
b1100011 *
b10110001111100000101011001100011 (
b11 2
b11 5
b11110000000 -
b11110000000 .
b11110000110 '
#595000
0!
b101100000110 "
b101100000110 Y"
1&
#600000
1S"
06"
17#
12"
1W"
1V"
1T"
14"
1[
1c
1\
1G
1d
1^
1f
1`
1h
1B
1E
1,
b1010110 %
b1010110 7
b1100011 $
b1100011 6
0&
#605000
1M"
1/"
01"
1B"
00"
1?"
1+#
1s"
1p"
1"#
1!#
1_"
0}"
1^"
1\"
1["
1&
#610000
0S"
16"
07#
02"
0W"
0V"
0T"
04"
0[
0c
0\
0G
0d
0^
0f
0`
0h
0B
0E
b0 %
b0 7
b0 $
b0 6
0,
0&
#615000
1+"
1K"
1I"
0""
1-"
0."
1%"
0/"
0M"
11"
1;"
0B"
00"
0?"
1,#
1%#
1d"
0##
1n"
1k"
0+#
0s"
0p"
0"#
0!#
0_"
1}"
0^"
0\"
0["
1&
#620000
0&
#625000
0+"
0K"
0I"
0""
1."
0%"
0,#
0%#
0d"
1##
0n"
0k"
1!
b10100101000110 "
b10100101000110 Y"
1&
#630000
0&
#631000
b1111011 G#
b1101 F#
b1111011 +
b1101 *
b110101110010111101100001101 (
b100 2
b100 5
b100000000100 -
b100000000100 .
b10000101000010 '
